{
	"prim": "Pair",
	"args": [
	  {
		"int": "123"
	  },
	  {
		"prim": "Pair",
		"args": [
		  {
			"prim": "Pair",
			"args": [
			  {
				"prim": "False"
			  },
			  {
				"prim": "Pair",
				"args": [
				  {
					"prim": "False"
				  },
				  {
					"int": "44611460731"
				  }
				]
			  }
			]
		  },
		  {
			"prim": "Pair",
			"args": [
			  {
				"prim": "Pair",
				"args": [
				  {
					"string": "KT1B5VTw8ZSMnrjhy337CEvAm4tnT8Gu8Geu"
				  },
				  {
					"string": "KT1PWx2mnDueood7fEmfbBDKx1D9BAnnXitn"
				  }
				]
			  },
			  {
				"prim": "Pair",
				"args": [
				  {
					"int": "812591"
				  },
				  {
					"int": "48199336408"
				  }
				]
			  }
			]
		  }
		]
	  }
	]
  }