[
    {
        "prim": "parameter",
        "args": [
            {
                "prim": "or",
                "args": [
                    {
                        "prim": "or",
                        "args": [
                            {
                                "prim": "lambda",
                                "args": [
                                    {
                                        "prim": "option",
                                        "args": [
                                            {
                                                "prim": "mutez"
                                            }
                                        ]
                                    },
                                    {
                                        "prim": "operation"
                                    }
                                ],
                                "annots": [
                                    "%do"
                                ]
                            },
                            {
                                "prim": "mutez",
                                "annots": [
                                    "%checkLimit"
                                ]
                            }
                        ]
                    },
                    {
                        "prim": "or",
                        "args": [
                            {
                                "prim": "unit",
                                "annots": [
                                    "%default"
                                ]
                            },
                            {
                                "prim": "option",
                                "args": [
                                    {
                                        "prim": "mutez"
                                    }
                                ],
                                "annots": [
                                    "%setLimit"
                                ]
                            }
                        ]
                    }
                ]
            }
        ]
    },
    {
        "prim": "storage",
        "args": [
            {
                "prim": "pair",
                "args": [
                    {
                        "prim": "pair",
                        "args": [
                            {
                                "prim": "option",
                                "args": [
                                    {
                                        "prim": "pair",
                                        "args": [
                                            {
                                                "prim": "timestamp",
                                                "annots": [
                                                    "%0"
                                                ]
                                            },
                                            {
                                                "prim": "mutez",
                                                "annots": [
                                                    "%expenses"
                                                ]
                                            }
                                        ]
                                    }
                                ],
                                "annots": [
                                    "%last_transaction"
                                ]
                            },
                            {
                                "prim": "option",
                                "args": [
                                    {
                                        "prim": "mutez"
                                    }
                                ],
                                "annots": [
                                    "%limit"
                                ]
                            }
                        ]
                    },
                    {
                        "prim": "key_hash",
                        "annots": [
                            "%owner"
                        ]
                    }
                ]
            }
        ]
    },
    {
        "prim": "code",
        "args": [
            [
                [
                    [
                        {
                            "prim": "DUP"
                        },
                        {
                            "prim": "CAR"
                        },
                        {
                            "prim": "DIP",
                            "args": [
                                [
                                    {
                                        "prim": "CDR"
                                    }
                                ]
                            ]
                        }
                    ]
                ],
                {
                    "prim": "IF_LEFT",
                    "args": [
                        [
                            {
                                "prim": "IF_LEFT",
                                "args": [
                                    [
                                        {
                                            "prim": "PUSH",
                                            "args": [
                                                {
                                                    "prim": "mutez"
                                                },
                                                {
                                                    "int": "0"
                                                }
                                            ]
                                        },
                                        {
                                            "prim": "AMOUNT"
                                        },
                                        [
                                            [
                                                {
                                                    "prim": "COMPARE"
                                                },
                                                {
                                                    "prim": "EQ"
                                                }
                                            ],
                                            {
                                                "prim": "IF",
                                                "args": [
                                                    [],
                                                    [
                                                        [
                                                            {
                                                                "prim": "UNIT"
                                                            },
                                                            {
                                                                "prim": "FAILWITH"
                                                            }
                                                        ]
                                                    ]
                                                ]
                                            }
                                        ],
                                        [
                                            {
                                                "prim": "DIP",
                                                "args": [
                                                    [
                                                        {
                                                            "prim": "DUP"
                                                        }
                                                    ]
                                                ]
                                            },
                                            {
                                                "prim": "SWAP"
                                            }
                                        ],
                                        {
                                            "prim": "CDR",
                                            "annots": [
                                                "%owner"
                                            ]
                                        },
                                        {
                                            "prim": "IMPLICIT_ACCOUNT"
                                        },
                                        {
                                            "prim": "ADDRESS"
                                        },
                                        {
                                            "prim": "SENDER"
                                        },
                                        [
                                            [
                                                {
                                                    "prim": "COMPARE"
                                                },
                                                {
                                                    "prim": "EQ"
                                                }
                                            ],
                                            {
                                                "prim": "IF",
                                                "args": [
                                                    [],
                                                    [
                                                        [
                                                            {
                                                                "prim": "UNIT"
                                                            },
                                                            {
                                                                "prim": "FAILWITH"
                                                            }
                                                        ]
                                                    ]
                                                ]
                                            }
                                        ],
                                        [
                                            {
                                                "prim": "DIP",
                                                "args": [
                                                    [
                                                        {
                                                            "prim": "DUP"
                                                        }
                                                    ]
                                                ]
                                            },
                                            {
                                                "prim": "SWAP"
                                            }
                                        ],
                                        [
                                            {
                                                "prim": "CAR"
                                            },
                                            {
                                                "prim": "CDR",
                                                "annots": [
                                                    "%limit"
                                                ]
                                            }
                                        ],
                                        [
                                            {
                                                "prim": "IF_NONE",
                                                "args": [
                                                    [
                                                        {
                                                            "prim": "NONE",
                                                            "args": [
                                                                {
                                                                    "prim": "mutez"
                                                                }
                                                            ]
                                                        },
                                                        {
                                                            "prim": "EXEC"
                                                        },
                                                        {
                                                            "prim": "NIL",
                                                            "args": [
                                                                {
                                                                    "prim": "operation"
                                                                }
                                                            ]
                                                        },
                                                        {
                                                            "prim": "SWAP"
                                                        },
                                                        {
                                                            "prim": "CONS"
                                                        },
                                                        {
                                                            "prim": "PAIR"
                                                        }
                                                    ],
                                                    [
                                                        {
                                                            "prim": "SOME"
                                                        },
                                                        {
                                                            "prim": "EXEC"
                                                        },
                                                        {
                                                            "prim": "SELF",
                                                            "annots": [
                                                                "%checkLimit"
                                                            ]
                                                        },
                                                        {
                                                            "prim": "PUSH",
                                                            "args": [
                                                                {
                                                                    "prim": "mutez"
                                                                },
                                                                {
                                                                    "int": "0"
                                                                }
                                                            ]
                                                        },
                                                        {
                                                            "prim": "BALANCE"
                                                        },
                                                        {
                                                            "prim": "TRANSFER_TOKENS"
                                                        },
                                                        {
                                                            "prim": "NIL",
                                                            "args": [
                                                                {
                                                                    "prim": "operation"
                                                                }
                                                            ]
                                                        },
                                                        {
                                                            "prim": "SWAP"
                                                        },
                                                        {
                                                            "prim": "CONS"
                                                        },
                                                        {
                                                            "prim": "SWAP"
                                                        },
                                                        {
                                                            "prim": "CONS"
                                                        },
                                                        {
                                                            "prim": "PAIR"
                                                        }
                                                    ]
                                                ]
                                            }
                                        ]
                                    ],
                                    [
                                        {
                                            "prim": "SELF"
                                        },
                                        {
                                            "prim": "ADDRESS"
                                        },
                                        {
                                            "prim": "SENDER"
                                        },
                                        [
                                            [
                                                {
                                                    "prim": "COMPARE"
                                                },
                                                {
                                                    "prim": "EQ"
                                                }
                                            ],
                                            {
                                                "prim": "IF",
                                                "args": [
                                                    [],
                                                    [
                                                        [
                                                            {
                                                                "prim": "UNIT"
                                                            },
                                                            {
                                                                "prim": "FAILWITH"
                                                            }
                                                        ]
                                                    ]
                                                ]
                                            }
                                        ],
                                        {
                                            "prim": "BALANCE"
                                        },
                                        {
                                            "prim": "SWAP"
                                        },
                                        {
                                            "prim": "SUB"
                                        },
                                        [
                                            {
                                                "prim": "DIP",
                                                "args": [
                                                    [
                                                        {
                                                            "prim": "DUP"
                                                        }
                                                    ]
                                                ]
                                            },
                                            {
                                                "prim": "SWAP"
                                            }
                                        ],
                                        [
                                            {
                                                "prim": "CAR"
                                            },
                                            {
                                                "prim": "CDR",
                                                "annots": [
                                                    "%limit"
                                                ]
                                            }
                                        ],
                                        [
                                            {
                                                "prim": "IF_NONE",
                                                "args": [
                                                    [
                                                        {
                                                            "prim": "PUSH",
                                                            "args": [
                                                                {
                                                                    "prim": "string"
                                                                },
                                                                {
                                                                    "string": ""
                                                                }
                                                            ]
                                                        },
                                                        {
                                                            "prim": "FAILWITH"
                                                        }
                                                    ],
                                                    [
                                                        {
                                                            "prim": "SWAP"
                                                        },
                                                        {
                                                            "prim": "DUP"
                                                        },
                                                        {
                                                            "prim": "PUSH",
                                                            "args": [
                                                                {
                                                                    "prim": "mutez"
                                                                },
                                                                {
                                                                    "int": "0"
                                                                }
                                                            ]
                                                        },
                                                        [
                                                            {
                                                                "prim": "COMPARE"
                                                            },
                                                            {
                                                                "prim": "EQ"
                                                            }
                                                        ],
                                                        {
                                                            "prim": "IF",
                                                            "args": [
                                                                [
                                                                    {
                                                                        "prim": "DROP"
                                                                    },
                                                                    {
                                                                        "prim": "DROP"
                                                                    },
                                                                    {
                                                                        "prim": "NIL",
                                                                        "args": [
                                                                            {
                                                                                "prim": "operation"
                                                                            }
                                                                        ]
                                                                    },
                                                                    {
                                                                        "prim": "PAIR"
                                                                    }
                                                                ],
                                                                [
                                                                    [
                                                                        {
                                                                            "prim": "DIP",
                                                                            "args": [
                                                                                {
                                                                                    "int": "2"
                                                                                },
                                                                                [
                                                                                    {
                                                                                        "prim": "DUP"
                                                                                    }
                                                                                ]
                                                                            ]
                                                                        },
                                                                        {
                                                                            "prim": "DIG",
                                                                            "args": [
                                                                                {
                                                                                    "int": "3"
                                                                                }
                                                                            ]
                                                                        }
                                                                    ],
                                                                    [
                                                                        {
                                                                            "prim": "CAR"
                                                                        },
                                                                        {
                                                                            "prim": "CAR",
                                                                            "annots": [
                                                                                "%last_transaction"
                                                                            ]
                                                                        }
                                                                    ],
                                                                    [
                                                                        {
                                                                            "prim": "IF_NONE",
                                                                            "args": [
                                                                                [
                                                                                    {
                                                                                        "prim": "DUP"
                                                                                    },
                                                                                    {
                                                                                        "prim": "DIP",
                                                                                        "args": [
                                                                                            [
                                                                                                [
                                                                                                    {
                                                                                                        "prim": "COMPARE"
                                                                                                    },
                                                                                                    {
                                                                                                        "prim": "LE"
                                                                                                    }
                                                                                                ]
                                                                                            ]
                                                                                        ]
                                                                                    },
                                                                                    {
                                                                                        "prim": "SWAP"
                                                                                    },
                                                                                    {
                                                                                        "prim": "IF",
                                                                                        "args": [
                                                                                            [
                                                                                                {
                                                                                                    "prim": "NOW"
                                                                                                },
                                                                                                {
                                                                                                    "prim": "PAIR"
                                                                                                },
                                                                                                {
                                                                                                    "prim": "SOME"
                                                                                                },
                                                                                                {
                                                                                                    "prim": "SWAP"
                                                                                                },
                                                                                                [
                                                                                                    {
                                                                                                        "prim": "DUP"
                                                                                                    },
                                                                                                    {
                                                                                                        "prim": "DIP",
                                                                                                        "args": [
                                                                                                            [
                                                                                                                {
                                                                                                                    "prim": "CAR",
                                                                                                                    "annots": [
                                                                                                                        "@%%"
                                                                                                                    ]
                                                                                                                },
                                                                                                                [
                                                                                                                    {
                                                                                                                        "prim": "CDR",
                                                                                                                        "annots": [
                                                                                                                            "@%%"
                                                                                                                        ]
                                                                                                                    },
                                                                                                                    {
                                                                                                                        "prim": "SWAP"
                                                                                                                    },
                                                                                                                    {
                                                                                                                        "prim": "PAIR",
                                                                                                                        "annots": [
                                                                                                                            "%",
                                                                                                                            "%@"
                                                                                                                        ]
                                                                                                                    }
                                                                                                                ]
                                                                                                            ]
                                                                                                        ]
                                                                                                    },
                                                                                                    {
                                                                                                        "prim": "CDR",
                                                                                                        "annots": [
                                                                                                            "@%%"
                                                                                                        ]
                                                                                                    },
                                                                                                    {
                                                                                                        "prim": "SWAP"
                                                                                                    },
                                                                                                    {
                                                                                                        "prim": "PAIR",
                                                                                                        "annots": [
                                                                                                            "%@",
                                                                                                            "%@"
                                                                                                        ]
                                                                                                    }
                                                                                                ],
                                                                                                {
                                                                                                    "prim": "NIL",
                                                                                                    "args": [
                                                                                                        {
                                                                                                            "prim": "operation"
                                                                                                        }
                                                                                                    ]
                                                                                                },
                                                                                                {
                                                                                                    "prim": "PAIR"
                                                                                                }
                                                                                            ],
                                                                                            [
                                                                                                {
                                                                                                    "prim": "PUSH",
                                                                                                    "args": [
                                                                                                        {
                                                                                                            "prim": "string"
                                                                                                        },
                                                                                                        {
                                                                                                            "string": ""
                                                                                                        }
                                                                                                    ]
                                                                                                },
                                                                                                {
                                                                                                    "prim": "FAILWITH"
                                                                                                }
                                                                                            ]
                                                                                        ]
                                                                                    }
                                                                                ],
                                                                                [
                                                                                    {
                                                                                        "prim": "DUP"
                                                                                    },
                                                                                    {
                                                                                        "prim": "CAR"
                                                                                    },
                                                                                    {
                                                                                        "prim": "NOW"
                                                                                    },
                                                                                    {
                                                                                        "prim": "SUB"
                                                                                    },
                                                                                    {
                                                                                        "prim": "PUSH",
                                                                                        "args": [
                                                                                            {
                                                                                                "prim": "int"
                                                                                            },
                                                                                            {
                                                                                                "int": "86400"
                                                                                            }
                                                                                        ]
                                                                                    },
                                                                                    [
                                                                                        {
                                                                                            "prim": "COMPARE"
                                                                                        },
                                                                                        {
                                                                                            "prim": "GT"
                                                                                        }
                                                                                    ],
                                                                                    {
                                                                                        "prim": "IF",
                                                                                        "args": [
                                                                                            [
                                                                                                [
                                                                                                    [
                                                                                                        {
                                                                                                            "prim": "DUP"
                                                                                                        },
                                                                                                        {
                                                                                                            "prim": "CAR"
                                                                                                        },
                                                                                                        {
                                                                                                            "prim": "DIP",
                                                                                                            "args": [
                                                                                                                [
                                                                                                                    {
                                                                                                                        "prim": "CDR"
                                                                                                                    }
                                                                                                                ]
                                                                                                            ]
                                                                                                        }
                                                                                                    ]
                                                                                                ],
                                                                                                {
                                                                                                    "prim": "DIP",
                                                                                                    "args": [
                                                                                                        [
                                                                                                            {
                                                                                                                "prim": "ADD"
                                                                                                            },
                                                                                                            {
                                                                                                                "prim": "DUP"
                                                                                                            }
                                                                                                        ]
                                                                                                    ]
                                                                                                },
                                                                                                {
                                                                                                    "prim": "SWAP"
                                                                                                },
                                                                                                {
                                                                                                    "prim": "DIG",
                                                                                                    "args": [
                                                                                                        {
                                                                                                            "int": "3"
                                                                                                        }
                                                                                                    ]
                                                                                                },
                                                                                                [
                                                                                                    {
                                                                                                        "prim": "COMPARE"
                                                                                                    },
                                                                                                    {
                                                                                                        "prim": "GE"
                                                                                                    }
                                                                                                ],
                                                                                                {
                                                                                                    "prim": "IF",
                                                                                                    "args": [
                                                                                                        [
                                                                                                            {
                                                                                                                "prim": "PAIR"
                                                                                                            },
                                                                                                            {
                                                                                                                "prim": "SOME"
                                                                                                            },
                                                                                                            {
                                                                                                                "prim": "SWAP"
                                                                                                            },
                                                                                                            [
                                                                                                                {
                                                                                                                    "prim": "DUP"
                                                                                                                },
                                                                                                                {
                                                                                                                    "prim": "DIP",
                                                                                                                    "args": [
                                                                                                                        [
                                                                                                                            {
                                                                                                                                "prim": "CAR",
                                                                                                                                "annots": [
                                                                                                                                    "@%%"
                                                                                                                                ]
                                                                                                                            },
                                                                                                                            [
                                                                                                                                {
                                                                                                                                    "prim": "CDR",
                                                                                                                                    "annots": [
                                                                                                                                        "@%%"
                                                                                                                                    ]
                                                                                                                                },
                                                                                                                                {
                                                                                                                                    "prim": "SWAP"
                                                                                                                                },
                                                                                                                                {
                                                                                                                                    "prim": "PAIR",
                                                                                                                                    "annots": [
                                                                                                                                        "%",
                                                                                                                                        "%@"
                                                                                                                                    ]
                                                                                                                                }
                                                                                                                            ]
                                                                                                                        ]
                                                                                                                    ]
                                                                                                                },
                                                                                                                {
                                                                                                                    "prim": "CDR",
                                                                                                                    "annots": [
                                                                                                                        "@%%"
                                                                                                                    ]
                                                                                                                },
                                                                                                                {
                                                                                                                    "prim": "SWAP"
                                                                                                                },
                                                                                                                {
                                                                                                                    "prim": "PAIR",
                                                                                                                    "annots": [
                                                                                                                        "%@",
                                                                                                                        "%@"
                                                                                                                    ]
                                                                                                                }
                                                                                                            ]
                                                                                                        ],
                                                                                                        [
                                                                                                            {
                                                                                                                "prim": "PUSH",
                                                                                                                "args": [
                                                                                                                    {
                                                                                                                        "prim": "string"
                                                                                                                    },
                                                                                                                    {
                                                                                                                        "string": ""
                                                                                                                    }
                                                                                                                ]
                                                                                                            },
                                                                                                            {
                                                                                                                "prim": "FAILWITH"
                                                                                                            }
                                                                                                        ]
                                                                                                    ]
                                                                                                }
                                                                                            ],
                                                                                            [
                                                                                                {
                                                                                                    "prim": "DROP"
                                                                                                },
                                                                                                {
                                                                                                    "prim": "DUP"
                                                                                                },
                                                                                                {
                                                                                                    "prim": "DIP",
                                                                                                    "args": [
                                                                                                        [
                                                                                                            {
                                                                                                                "prim": "SWAP"
                                                                                                            },
                                                                                                            [
                                                                                                                {
                                                                                                                    "prim": "COMPARE"
                                                                                                                },
                                                                                                                {
                                                                                                                    "prim": "GE"
                                                                                                                }
                                                                                                            ]
                                                                                                        ]
                                                                                                    ]
                                                                                                },
                                                                                                {
                                                                                                    "prim": "SWAP"
                                                                                                },
                                                                                                {
                                                                                                    "prim": "IF",
                                                                                                    "args": [
                                                                                                        [
                                                                                                            {
                                                                                                                "prim": "NOW"
                                                                                                            },
                                                                                                            {
                                                                                                                "prim": "PAIR"
                                                                                                            },
                                                                                                            {
                                                                                                                "prim": "SOME"
                                                                                                            },
                                                                                                            {
                                                                                                                "prim": "SWAP"
                                                                                                            },
                                                                                                            [
                                                                                                                {
                                                                                                                    "prim": "DUP"
                                                                                                                },
                                                                                                                {
                                                                                                                    "prim": "DIP",
                                                                                                                    "args": [
                                                                                                                        [
                                                                                                                            {
                                                                                                                                "prim": "CAR",
                                                                                                                                "annots": [
                                                                                                                                    "@%%"
                                                                                                                                ]
                                                                                                                            },
                                                                                                                            [
                                                                                                                                {
                                                                                                                                    "prim": "CDR",
                                                                                                                                    "annots": [
                                                                                                                                        "@%%"
                                                                                                                                    ]
                                                                                                                                },
                                                                                                                                {
                                                                                                                                    "prim": "SWAP"
                                                                                                                                },
                                                                                                                                {
                                                                                                                                    "prim": "PAIR",
                                                                                                                                    "annots": [
                                                                                                                                        "%",
                                                                                                                                        "%@"
                                                                                                                                    ]
                                                                                                                                }
                                                                                                                            ]
                                                                                                                        ]
                                                                                                                    ]
                                                                                                                },
                                                                                                                {
                                                                                                                    "prim": "CDR",
                                                                                                                    "annots": [
                                                                                                                        "@%%"
                                                                                                                    ]
                                                                                                                },
                                                                                                                {
                                                                                                                    "prim": "SWAP"
                                                                                                                },
                                                                                                                {
                                                                                                                    "prim": "PAIR",
                                                                                                                    "annots": [
                                                                                                                        "%@",
                                                                                                                        "%@"
                                                                                                                    ]
                                                                                                                }
                                                                                                            ]
                                                                                                        ],
                                                                                                        [
                                                                                                            {
                                                                                                                "prim": "PUSH",
                                                                                                                "args": [
                                                                                                                    {
                                                                                                                        "prim": "string"
                                                                                                                    },
                                                                                                                    {
                                                                                                                        "string": ""
                                                                                                                    }
                                                                                                                ]
                                                                                                            },
                                                                                                            {
                                                                                                                "prim": "FAILWITH"
                                                                                                            }
                                                                                                        ]
                                                                                                    ]
                                                                                                }
                                                                                            ]
                                                                                        ]
                                                                                    },
                                                                                    {
                                                                                        "prim": "NIL",
                                                                                        "args": [
                                                                                            {
                                                                                                "prim": "operation"
                                                                                            }
                                                                                        ]
                                                                                    },
                                                                                    {
                                                                                        "prim": "PAIR"
                                                                                    }
                                                                                ]
                                                                            ]
                                                                        }
                                                                    ]
                                                                ]
                                                            ]
                                                        }
                                                    ]
                                                ]
                                            }
                                        ]
                                    ]
                                ]
                            }
                        ],
                        [
                            {
                                "prim": "IF_LEFT",
                                "args": [
                                    [
                                        {
                                            "prim": "DROP"
                                        },
                                        {
                                            "prim": "NIL",
                                            "args": [
                                                {
                                                    "prim": "operation"
                                                }
                                            ]
                                        },
                                        {
                                            "prim": "PAIR"
                                        }
                                    ],
                                    [
                                        {
                                            "prim": "PUSH",
                                            "args": [
                                                {
                                                    "prim": "mutez"
                                                },
                                                {
                                                    "int": "0"
                                                }
                                            ]
                                        },
                                        {
                                            "prim": "AMOUNT"
                                        },
                                        [
                                            [
                                                {
                                                    "prim": "COMPARE"
                                                },
                                                {
                                                    "prim": "EQ"
                                                }
                                            ],
                                            {
                                                "prim": "IF",
                                                "args": [
                                                    [],
                                                    [
                                                        [
                                                            {
                                                                "prim": "UNIT"
                                                            },
                                                            {
                                                                "prim": "FAILWITH"
                                                            }
                                                        ]
                                                    ]
                                                ]
                                            }
                                        ],
                                        [
                                            {
                                                "prim": "DIP",
                                                "args": [
                                                    [
                                                        {
                                                            "prim": "DUP"
                                                        }
                                                    ]
                                                ]
                                            },
                                            {
                                                "prim": "SWAP"
                                            }
                                        ],
                                        {
                                            "prim": "CDR",
                                            "annots": [
                                                "%owner"
                                            ]
                                        },
                                        {
                                            "prim": "IMPLICIT_ACCOUNT"
                                        },
                                        {
                                            "prim": "ADDRESS"
                                        },
                                        {
                                            "prim": "SENDER"
                                        },
                                        [
                                            [
                                                {
                                                    "prim": "COMPARE"
                                                },
                                                {
                                                    "prim": "EQ"
                                                }
                                            ],
                                            {
                                                "prim": "IF",
                                                "args": [
                                                    [],
                                                    [
                                                        [
                                                            {
                                                                "prim": "UNIT"
                                                            },
                                                            {
                                                                "prim": "FAILWITH"
                                                            }
                                                        ]
                                                    ]
                                                ]
                                            }
                                        ],
                                        {
                                            "prim": "SWAP"
                                        },
                                        [
                                            {
                                                "prim": "DUP"
                                            },
                                            {
                                                "prim": "DIP",
                                                "args": [
                                                    [
                                                        {
                                                            "prim": "CAR",
                                                            "annots": [
                                                                "@%%"
                                                            ]
                                                        },
                                                        [
                                                            {
                                                                "prim": "CAR",
                                                                "annots": [
                                                                    "@%%"
                                                                ]
                                                            },
                                                            {
                                                                "prim": "PAIR",
                                                                "annots": [
                                                                    "%@",
                                                                    "%"
                                                                ]
                                                            }
                                                        ]
                                                    ]
                                                ]
                                            },
                                            {
                                                "prim": "CDR",
                                                "annots": [
                                                    "@%%"
                                                ]
                                            },
                                            {
                                                "prim": "SWAP"
                                            },
                                            {
                                                "prim": "PAIR",
                                                "annots": [
                                                    "%@",
                                                    "%@"
                                                ]
                                            }
                                        ],
                                        {
                                            "prim": "NIL",
                                            "args": [
                                                {
                                                    "prim": "operation"
                                                }
                                            ]
                                        },
                                        {
                                            "prim": "PAIR"
                                        }
                                    ]
                                ]
                            }
                        ]
                    ]
                }
            ]
        ]
    }
]

